{
	"checksum" : "64c44dbce45593d36483a5f073c1743a",
	"collection" : "security_groups",
	"json" : {
        "contentVersion": "1.0.0.0",
        "resources": [
            {
                "type": "Microsoft.Network/networkSecurityGroups",
                "apiVersion": "2018-12-01",
                "name": "prancer-tutorial-nsg",
                "location": "westus",
                "properties": {
                    "securityRules": [
                        {
                            "name": "sshFromVnet",
                            "properties": {
                                "protocol": "*",
                                "sourcePortRange": "*",
                                "destinationPortRange": "22",
                                "sourceAddressPrefix": "VirtualNetwork",
                                "destinationAddressPrefix": "172.1.1.0/24",
                                "access": "Allow",
                                "priority": 100,
                                "direction": "Inbound"
                            }
                        },
                        {
                            "name": "httpFromPublic",
                            "properties": {
                                "protocol": "*",
                                "sourcePortRange": "*",
                                "destinationPortRange": "80",
                                "sourceAddressPrefix": "Internet",
                                "destinationAddressPrefix": "172.1.1.0/24",
                                "access": "Allow",
                                "priority": 110,
                                "direction": "Inbound"
                            }
                        },
                        {
                            "name": "httpsFromPublic",
                            "properties": {
                                "protocol": "*",
                                "sourcePortRange": "*",
                                "destinationPortRange": "443",
                                "sourceAddressPrefix": "Internet",
                                "destinationAddressPrefix": "172.1.1.0/24",
                                "access": "Allow",
                                "priority": 111,
                                "direction": "Inbound"
                            }
                        }
                    ]
                }
            }
        ]
    },
	"node" : {
		"collection" : "security_groups",
		"path" : "devops/cf/mytemplate1.json",
		"snapshotId" : "2",
		"type" : "json"
	},
	"path" : "devops/cf/mytemplate1.json",
	"queryuser" : "",
	"reference" : "master",
	"snapshotId" : "2",
	"source" : "gitConnector",
	"structure" : "git",
	"timestamp" : 1556855057031
}
