{
  "name": "vnet2",
  "id": "/subscriptions/e43e7132-8b64-xxyy-b32d-f038bbxxyyzz/resourceGroups/vnet-test/providers/Microsoft.Network/virtualNetworks/vnet2",
  "etag": "W/\"f6bbaccb-f98b-405f-936b-9c1b03df7a67\"",
  "type": "Microsoft.Network/virtualNetworks",
  "location": "eastus2",
  "properties": {
    "provisioningState": "Succeeded",
    "resourceGuid": "3c301e84-2b2b-4127-a131-6c7868db3e25",
    "addressSpace": {
      "addressPrefixes": [
        "11.2.0.0/16"
      ]
    },
    "subnets": [
      {
        "name": "default",
        "id": "/subscriptions/e43e7132-8b64-xxyy-b32d-f038bbxxyyzz/resourceGroups/vnet-test/providers/Microsoft.Network/virtualNetworks/vnet2/subnets/default",
        "etag": "W/\"f6bbaccb-f98b-405f-936b-9c1b03df7a67\"",
        "properties": {
          "provisioningState": "Succeeded",
          "addressPrefix": "11.2.0.0/24",
          "delegations": []
        },
        "type": "Microsoft.Network/virtualNetworks/subnets"
      }
    ],
    "virtualNetworkPeerings": [],
    "enableDdosProtection": false,
    "enableVmProtection": false
  }
}
