{
  "name": "vnet1",
  "id": "/subscriptions/e43e7132-8b64-xxyy-b32d-f038bbxxyyzz/resourceGroups/vnet-test/providers/Microsoft.Network/virtualNetworks/vnet1",
  "etag": "W/\"74fbbe84-d94b-4734-a010-9f4cb4451242\"",
  "type": "Microsoft.Network/virtualNetworks",
  "location": "eastus2",
  "properties": {
    "provisioningState": "Succeeded",
    "resourceGuid": "c7a4b14e-2b1e-46ce-9afc-571273faa1ef",
    "addressSpace": {
      "addressPrefixes": [
        "10.2.0.0/16"
      ]
    },
    "subnets": [
      {
        "name": "default",
        "id": "/subscriptions/e43e7132-8b64-xxyy-b32d-f038bbxxyyzz/resourceGroups/vnet-test/providers/Microsoft.Network/virtualNetworks/vnet1/subnets/default",
        "etag": "W/\"74fbbe84-d94b-4734-a010-9f4cb4451242\"",
        "properties": {
          "provisioningState": "Succeeded",
          "addressPrefix": "10.2.0.0/24",
          "delegations": []
        },
        "type": "Microsoft.Network/virtualNetworks/subnets"
      }
    ],
    "virtualNetworkPeerings": [],
    "enableDdosProtection": false,
    "enableVmProtection": false
  }
}
