{
  "name": "vnet02",
  "id": "/subscriptions/e43e7132-8b64-xxyy-b32d-f038bbxxyyzz/resourceGroups/demorg1/providers/Microsoft.Network/virtualNetworks/vnet02",
  "etag": "W/\"e4374fc1-113d-4dcf-817a-61c0a25da716\"",
  "type": "Microsoft.Network/virtualNetworks",
  "location": "eastus2",
  "tags": {
    "REQUESTED_BY": "Cloud Team",
    "PRODUCT_LINE": "testenv",
    "OWNER": "Cloud Team",
    "RESOURCE_TIER": "NA",
    "RESOURCE_UPTIME": "2X7",
    "DATA_CLASSIFICATION": "NA",
    "PRODUCT_NAME": "Infrastructure",
    "MAINTENANCE_WINDOW": "NA"
  },
  "properties": {
    "provisioningState": "Succeeded",
    "resourceGuid": "23ae59ae-188e-4d6f-8688-cbd3fecded46",
    "addressSpace": {
      "addressPrefixes": [
        "10.1.0.0/16"
      ]
    },
    "dhcpOptions": {
      "dnsServers": [
        "172.18.96.214",
        "172.18.96.216"
      ]
    },
    "subnets": [
      {
        "name": "subnet2",
        "id": "/subscriptions/e43e7132-8b64-xxyy-b32d-f038bbxxyyzz/resourceGroups/demorg1/providers/Microsoft.Network/virtualNetworks/vnet02/subnets/subnet2",
        "etag": "W/\"e4374fc1-113d-4dcf-817a-61c0a25da716\"",
        "properties": {
          "provisioningState": "Succeeded",
          "addressPrefix": "10.1.0.0/24",
          "serviceEndpoints": [],
          "delegations": []
        },
        "type": "Microsoft.Network/virtualNetworks/subnets"
      }
    ],
    "virtualNetworkPeerings": [],
    "enableDdosProtection": false,
    "enableVmProtection": false
  }
}
